BibliotecaApp\begin\Start.class
BibliotecaApp\util\Validator.class
BibliotecaApp\model\Carte.class
BibliotecaApp\repo\CartiRepo.class
BibliotecaApp\repository\repoMock\CartiRepoMock$1.class
BibliotecaApp\repository\repoInterfaces\CartiRepoInterface.class
BibliotecaApp\view\Consola.class
BibliotecaApp\control\BibliotecaCtrl.class
BibliotecaApp\repo\CartiRepo$1.class
BibliotecaApp\repository\repoMock\CartiRepoMock.class
